%YAML 1.1
%TAG !u! tag:unity3d.com,2011:
--- !u!74 &7400000
AnimationClip:
  m_ObjectHideFlags: 0
  m_CorrespondingSourceObject: {fileID: 0}
  m_PrefabInstance: {fileID: 0}
  m_PrefabAsset: {fileID: 0}
  m_Name: GamerMatch_ (2)PC
  serializedVersion: 6
  m_Legacy: 0
  m_Compressed: 0
  m_UseHighQualityCurve: 1
  m_RotationCurves: []
  m_CompressedRotationCurves: []
  m_EulerCurves: []
  m_PositionCurves: []
  m_ScaleCurves: []
  m_FloatCurves: []
  m_PPtrCurves:
  - curve:
    - time: 0
      value: {fileID: 21300000, guid: 6b829df8d575d9444b8ef0f7151ea7e1, type: 3}
    - time: 0.5
      value: {fileID: 21300000, guid: edc78fae6731a3f419abf9eecb951312, type: 3}
    - time: 1
      value: {fileID: 21300000, guid: 1708d32f03e16f5428ed1e4a5a22aca1, type: 3}
    - time: 1.5
      value: {fileID: 21300000, guid: ceb9da2a921e53743a5a2187865971df, type: 3}
    - time: 2
      value: {fileID: 21300000, guid: 3c499e9de4774854d93276ed2a17612d, type: 3}
    - time: 2.5
      value: {fileID: 21300000, guid: 3a80d7a9ee95dc94caf072f1ca30fc4d, type: 3}
    - time: 3
      value: {fileID: 21300000, guid: 6b829df8d575d9444b8ef0f7151ea7e1, type: 3}
    attribute: m_Sprite
    path: GamerFigure/Activate/Art/Comp
    classID: 212
    script: {fileID: 0}
  m_SampleRate: 60
  m_WrapMode: 0
  m_Bounds:
    m_Center: {x: 0, y: 0, z: 0}
    m_Extent: {x: 0, y: 0, z: 0}
  m_ClipBindingConstant:
    genericBindings:
    - serializedVersion: 2
      path: 3725676602
      attribute: 0
      script: {fileID: 0}
      typeID: 212
      customType: 23
      isPPtrCurve: 1
    pptrCurveMapping:
    - {fileID: 21300000, guid: 6b829df8d575d9444b8ef0f7151ea7e1, type: 3}
    - {fileID: 21300000, guid: edc78fae6731a3f419abf9eecb951312, type: 3}
    - {fileID: 21300000, guid: 1708d32f03e16f5428ed1e4a5a22aca1, type: 3}
    - {fileID: 21300000, guid: ceb9da2a921e53743a5a2187865971df, type: 3}
    - {fileID: 21300000, guid: 3c499e9de4774854d93276ed2a17612d, type: 3}
    - {fileID: 21300000, guid: 3a80d7a9ee95dc94caf072f1ca30fc4d, type: 3}
    - {fileID: 21300000, guid: 6b829df8d575d9444b8ef0f7151ea7e1, type: 3}
  m_AnimationClipSettings:
    serializedVersion: 2
    m_AdditiveReferencePoseClip: {fileID: 0}
    m_AdditiveReferencePoseTime: 0
    m_StartTime: 0
    m_StopTime: 3.0166667
    m_OrientationOffsetY: 0
    m_Level: 0
    m_CycleOffset: 0
    m_HasAdditiveReferencePose: 0
    m_LoopTime: 1
    m_LoopBlend: 0
    m_LoopBlendOrientation: 0
    m_LoopBlendPositionY: 0
    m_LoopBlendPositionXZ: 0
    m_KeepOriginalOrientation: 0
    m_KeepOriginalPositionY: 1
    m_KeepOriginalPositionXZ: 0
    m_HeightFromFeet: 0
    m_Mirror: 0
  m_EditorCurves: []
  m_EulerEditorCurves: []
  m_HasGenericRootTransform: 0
  m_HasMotionFloatCurves: 0
  m_Events: []
