%YAML 1.1
%TAG !u! tag:unity3d.com,2011:
--- !u!114 &11400000
MonoBehaviour:
  m_ObjectHideFlags: 0
  m_CorrespondingSourceObject: {fileID: 0}
  m_PrefabInstance: {fileID: 0}
  m_PrefabAsset: {fileID: 0}
  m_GameObject: {fileID: 0}
  m_Enabled: 1
  m_EditorHideFlags: 0
  m_Script: {fileID: 11500000, guid: 137465f6ba877af4bbf5f68e5914944c, type: 3}
  m_Name: 03_Room_MOBA
  m_EditorClassIdentifier: 
  m_activate: 0
  LevelAccess: 60
  PriceAccess: 5.0421e+11
  m_logoRoom: {fileID: 21300000, guid: 3854e77439fac274db91774f0a954a37, type: 3}
  _colorRoom: {r: 0.7882353, g: 0.6627451, b: 1, a: 1}
  Name: MOBA
  IconSkills:
  - {fileID: 21300000, guid: ccd8a905c4a2c084b951dfea6b5de285, type: 3}
  - {fileID: 21300000, guid: d106023d11ac56b46accfd13bbdd8e5a, type: 3}
  - {fileID: 21300000, guid: d57276cc3dd94954b871b29e8978a8e1, type: 3}
  - {fileID: 21300000, guid: 68d23417ed2997143ba857cd0227cf9a, type: 3}
  priceMultiplierSkill: 1.12
  priceMultiplierSkillPoint: 1.1
  priceSkillMultiplierPerk: 1.5
  basePriceSpeed: 3e+11
  priceMultiplierSpeed: 1.7
  basePriceSponsors: 2.125e+11
  priceMultiplierSponsors: 1.26
  basePriceLeague: 5.75e+11
  priceMultiplierLeague: 1.43
  baseBetLeague: 140450000
  baseMultipleBet: 1.125
  tournamentReadyTimeout: 660
  tournamentWinSkillPoints: 30
  tournamentWinSkillPointsBonusMultiplier: 5
  tournamentGamerClickTime: 1
  tournamentComputerImage: {fileID: 21300000, guid: aa1899add4cd29849b6a087f0d9f9ef6,
    type: 3}
  m_gamers:
  - name: JOHAN "SNAKE" SHAPIRA
    avatar: {fileID: 21300000, guid: 5363cc4e0faf1ef4586f0fc4919b3b95, type: 3}
    accessLevel: 60
    accesPrice: 5.0421e+11
    startWinRate: 34
    activate: 0
    Variants:
    - Number: 1
      Name: Kristen "Cuddle" Smith
      Avatar: {fileID: 21300000, guid: a4a2d8f29a377404a9043d467a15468c, type: 3}
      WinRate: 5
      Price: 600
    - Number: 2
      Name: Gaby "Rocket" Maino
      Avatar: {fileID: 21300000, guid: 8e7636c8c469e1940baed28e28e0cfcd, type: 3}
      WinRate: -5
      Price: 0
    skills:
    - name: 'Role: Tank'
      basePrice: 1.9990877e+12
      stepWinRate: 1
      curLevel: 0
    - name: Teamwork
      basePrice: 4.0981297e+12
      stepWinRate: 2
      curLevel: 0
    - name: Itembuild
      basePrice: 7.1307457e+12
      stepWinRate: 3
      curLevel: 0
    - name: Map awareness
      basePrice: 131
      stepWinRate: 4
      curLevel: 0
  - name: LIA "SAPPHIRE" YINGI
    avatar: {fileID: 21300000, guid: 0eeda14b7cddde64e97a93ec395eb09d, type: 3}
    accessLevel: 65
    accesPrice: 3.52947e+12
    startWinRate: 23
    activate: 0
    Variants:
    - Number: 1
      Name: Kurtis "Chaos" Berg
      Avatar: {fileID: 21300000, guid: 8c34bed6e3b585845a8871149ac53b31, type: 3}
      WinRate: 5
      Price: 650
    - Number: 2
      Name: Jiney "Bu5ka" Roberson
      Avatar: {fileID: 21300000, guid: 36c5135267813944a88051fdc3ec87b9, type: 3}
      WinRate: -5
      Price: 0
    skills:
    - name: 'Role: Split Pusher'
      basePrice: 1.869147e+13
      stepWinRate: 1
      curLevel: 0
    - name: Teamwork
      basePrice: 3.8317513e+13
      stepWinRate: 2
      curLevel: 0
    - name: Farming
      basePrice: 6.667247e+13
      stepWinRate: 3
      curLevel: 0
    - name: Skills knowledge
      basePrice: 141
      stepWinRate: 4
      curLevel: 0
  - name: AANG "FORLIFE" LEE
    avatar: {fileID: 21300000, guid: aaf7b9ce8a7331f42bb3cb2777256ba9, type: 3}
    accessLevel: 70
    accesPrice: 2.470629e+13
    startWinRate: 15
    activate: 0
    Variants:
    - Number: 1
      Name: Sam "Pencil" Freedman
      Avatar: {fileID: 21300000, guid: 196018db84c65bc40b09c351313a098b, type: 3}
      WinRate: 5
      Price: 700
    - Number: 2
      Name: Gleb "Mishka" Antonov
      Avatar: {fileID: 21300000, guid: b68187c70263ad049b5681ec19e8bc97, type: 3}
      WinRate: -5
      Price: 0
    skills:
    - name: 'Role: Support'
      basePrice: 1.7476524e+14
      stepWinRate: 1
      curLevel: 0
    - name: Teamwork
      basePrice: 3.5826876e+14
      stepWinRate: 2
      curLevel: 0
    - name: Skilbuild
      basePrice: 6.233876e+14
      stepWinRate: 3
      curLevel: 0
    - name: Heroes knowledge
      basePrice: 152
      stepWinRate: 4
      curLevel: 0
  - name: NIKO "LIMBO" BRAGIN
    avatar: {fileID: 21300000, guid: 780f92e76cb04664283f43539b2befbc, type: 3}
    accessLevel: 75
    accesPrice: 1.7294402e+14
    startWinRate: 45
    activate: 0
    Variants:
    - Number: 1
      Name: Alberi "YoYo" Mondel
      Avatar: {fileID: 21300000, guid: 908732c34e3f7374a9911227d3af34d6, type: 3}
      WinRate: 5
      Price: 750
    - Number: 2
      Name: Damon "Buddy" Nolson
      Avatar: {fileID: 21300000, guid: c5962de93fddfd041b6cc3791dc53d70, type: 3}
      WinRate: -5
      Price: 0
    skills:
    - name: 'Role: Nuker'
      basePrice: 1.6340551e+15
      stepWinRate: 1
      curLevel: 0
    - name: Teamwork
      basePrice: 3.3498128e+15
      stepWinRate: 2
      curLevel: 0
    - name: Damage per second
      basePrice: 5.8286743e+15
      stepWinRate: 3
      curLevel: 0
    - name: Spells knowledge
      basePrice: 165
      stepWinRate: 4
      curLevel: 0
  - name: PATRICK "HAT" DOYLE
    avatar: {fileID: 21300000, guid: 0dd731d6e2920ef44b4a91677a84d4e4, type: 3}
    accessLevel: 80
    accesPrice: 1.2106082e+15
    startWinRate: 37
    activate: 0
    Variants:
    - Number: 1
      Name: Bryan "Air" Goff
      Avatar: {fileID: 21300000, guid: fe8f46dd265d8244894f1087c39f751f, type: 3}
      WinRate: 5
      Price: 800
    - Number: 2
      Name: Lauren "B-Rad" Quach
      Avatar: {fileID: 21300000, guid: ff66391ad7f3fb4449caa605792624fc, type: 3}
      WinRate: -5
      Price: 0
    skills:
    - name: 'Role: Jungler'
      basePrice: 1.5278414e+16
      stepWinRate: 1
      curLevel: 0
    - name: Teamwork
      basePrice: 3.1320748e+16
      stepWinRate: 2
      curLevel: 0
    - name: Experience
      basePrice: 5.4498106e+16
      stepWinRate: 3
      curLevel: 0
    - name: Movement
      basePrice: 178
      stepWinRate: 4
      curLevel: 0
  - name: MARIKA "VILA5T" TRINKS
    avatar: {fileID: 21300000, guid: 2e4b489b3c0198a4082f522bcd0ce99f, type: 3}
    accessLevel: 85
    accesPrice: 8.4742577e+15
    startWinRate: 30
    activate: 0
    Variants:
    - Number: 1
      Name: Tani "Wings" Bornier
      Avatar: {fileID: 21300000, guid: ae151e32903b9cf4481a8f17933a264a, type: 3}
      WinRate: 5
      Price: 850
    - Number: 2
      Name: Ben "Zver" Polchow
      Avatar: {fileID: 21300000, guid: 161fe1778229f654497555e4a3bac436, type: 3}
      WinRate: -5
      Price: 0
    skills:
    - name: 'Role: Initiator'
      basePrice: 1.4285317e+17
      stepWinRate: 1
      curLevel: 0
    - name: Teamwork
      basePrice: 2.92849e+17
      stepWinRate: 2
      curLevel: 0
    - name: Efficiency
      basePrice: 5.0955726e+17
      stepWinRate: 3
      curLevel: 0
    - name: Lane pushing
      basePrice: 192
      stepWinRate: 4
      curLevel: 0
  _trainer:
    Activate: 0
    TimeLimitLevel: 1
    RevenueLevel: 1
    TimeLimitBasePrice: 5
    TimeLimitPriceMultiplier: 1.05
    RevenueBasePrice: 10
    RevenuePriceMultiplier: 1.07
    Title: Moba Coach
    Name: Gabriel Newell
    Description: Coach increases offline earnings of Moba team
    Price: 250
