%YAML 1.1
%TAG !u! tag:unity3d.com,2011:
--- !u!114 &11400000
MonoBehaviour:
  m_ObjectHideFlags: 0
  m_CorrespondingSourceObject: {fileID: 0}
  m_PrefabInstance: {fileID: 0}
  m_PrefabAsset: {fileID: 0}
  m_GameObject: {fileID: 0}
  m_Enabled: 1
  m_EditorHideFlags: 0
  m_Script: {fileID: 11500000, guid: 4119c536704394859aa7fdf3e4b0156d, type: 3}
  m_Name: GoogleMobileAdsSettings
  m_EditorClassIdentifier: 
  isAdManagerEnabled: 0
  isAdMobEnabled: 1
  adMobAndroidAppId: ca-app-pub-3555987499620362~7753626152
  adMobIOSAppId: ca-app-pub-3555987499620362~7753626152
  delayAppMeasurementInit: 0
