%YAML 1.1
%TAG !u! tag:unity3d.com,2011:
--- !u!1001 &1961854249234391421
PrefabInstance:
  m_ObjectHideFlags: 0
  serializedVersion: 2
  m_Modification:
    m_TransformParent: {fileID: 0}
    m_Modifications:
    - target: {fileID: 8824920522726166394, guid: 4c23e270fdc43204684db9d5f0dcd2f1,
        type: 3}
      propertyPath: m_Name
      value: TrainerSkillRevenue
      objectReference: {fileID: 0}
    - target: {fileID: 8824920522726166395, guid: 4c23e270fdc43204684db9d5f0dcd2f1,
        type: 3}
      propertyPath: m_LocalPosition.x
      value: 0
      objectReference: {fileID: 0}
    - target: {fileID: 8824920522726166395, guid: 4c23e270fdc43204684db9d5f0dcd2f1,
        type: 3}
      propertyPath: m_LocalPosition.y
      value: 0
      objectReference: {fileID: 0}
    - target: {fileID: 8824920522726166395, guid: 4c23e270fdc43204684db9d5f0dcd2f1,
        type: 3}
      propertyPath: m_LocalPosition.z
      value: 0
      objectReference: {fileID: 0}
    - target: {fileID: 8824920522726166395, guid: 4c23e270fdc43204684db9d5f0dcd2f1,
        type: 3}
      propertyPath: m_LocalRotation.x
      value: 0
      objectReference: {fileID: 0}
    - target: {fileID: 8824920522726166395, guid: 4c23e270fdc43204684db9d5f0dcd2f1,
        type: 3}
      propertyPath: m_LocalRotation.y
      value: 0
      objectReference: {fileID: 0}
    - target: {fileID: 8824920522726166395, guid: 4c23e270fdc43204684db9d5f0dcd2f1,
        type: 3}
      propertyPath: m_LocalRotation.z
      value: 0
      objectReference: {fileID: 0}
    - target: {fileID: 8824920522726166395, guid: 4c23e270fdc43204684db9d5f0dcd2f1,
        type: 3}
      propertyPath: m_LocalRotation.w
      value: 1
      objectReference: {fileID: 0}
    - target: {fileID: 8824920522726166395, guid: 4c23e270fdc43204684db9d5f0dcd2f1,
        type: 3}
      propertyPath: m_RootOrder
      value: 0
      objectReference: {fileID: 0}
    - target: {fileID: 8824920522726166395, guid: 4c23e270fdc43204684db9d5f0dcd2f1,
        type: 3}
      propertyPath: m_LocalEulerAnglesHint.x
      value: 0
      objectReference: {fileID: 0}
    - target: {fileID: 8824920522726166395, guid: 4c23e270fdc43204684db9d5f0dcd2f1,
        type: 3}
      propertyPath: m_LocalEulerAnglesHint.y
      value: 0
      objectReference: {fileID: 0}
    - target: {fileID: 8824920522726166395, guid: 4c23e270fdc43204684db9d5f0dcd2f1,
        type: 3}
      propertyPath: m_LocalEulerAnglesHint.z
      value: 0
      objectReference: {fileID: 0}
    - target: {fileID: 8824920522726166395, guid: 4c23e270fdc43204684db9d5f0dcd2f1,
        type: 3}
      propertyPath: m_AnchoredPosition.x
      value: 0
      objectReference: {fileID: 0}
    - target: {fileID: 8824920522726166395, guid: 4c23e270fdc43204684db9d5f0dcd2f1,
        type: 3}
      propertyPath: m_AnchoredPosition.y
      value: -4.049988
      objectReference: {fileID: 0}
    - target: {fileID: 8824920522726166395, guid: 4c23e270fdc43204684db9d5f0dcd2f1,
        type: 3}
      propertyPath: m_SizeDelta.x
      value: 0
      objectReference: {fileID: 0}
    - target: {fileID: 8824920522726166395, guid: 4c23e270fdc43204684db9d5f0dcd2f1,
        type: 3}
      propertyPath: m_SizeDelta.y
      value: 86
      objectReference: {fileID: 0}
    - target: {fileID: 8824920522726166395, guid: 4c23e270fdc43204684db9d5f0dcd2f1,
        type: 3}
      propertyPath: m_AnchorMin.x
      value: 0
      objectReference: {fileID: 0}
    - target: {fileID: 8824920522726166395, guid: 4c23e270fdc43204684db9d5f0dcd2f1,
        type: 3}
      propertyPath: m_AnchorMin.y
      value: 1
      objectReference: {fileID: 0}
    - target: {fileID: 8824920522726166395, guid: 4c23e270fdc43204684db9d5f0dcd2f1,
        type: 3}
      propertyPath: m_AnchorMax.x
      value: 1
      objectReference: {fileID: 0}
    - target: {fileID: 8824920522726166395, guid: 4c23e270fdc43204684db9d5f0dcd2f1,
        type: 3}
      propertyPath: m_AnchorMax.y
      value: 1
      objectReference: {fileID: 0}
    - target: {fileID: 8824920522726166395, guid: 4c23e270fdc43204684db9d5f0dcd2f1,
        type: 3}
      propertyPath: m_Pivot.x
      value: 0.5
      objectReference: {fileID: 0}
    - target: {fileID: 8824920522726166395, guid: 4c23e270fdc43204684db9d5f0dcd2f1,
        type: 3}
      propertyPath: m_Pivot.y
      value: 1
      objectReference: {fileID: 0}
    - target: {fileID: 8824920523088858165, guid: 4c23e270fdc43204684db9d5f0dcd2f1,
        type: 3}
      propertyPath: m_Sprite
      value: 
      objectReference: {fileID: 21300000, guid: ff2f36d6fcb544542853887430b4ae34,
        type: 3}
    - target: {fileID: 8824920523740570988, guid: 4c23e270fdc43204684db9d5f0dcd2f1,
        type: 3}
      propertyPath: m_Sprite
      value: 
      objectReference: {fileID: 21300000, guid: 553a8a1f0692a8848acf19c9b0ead760,
        type: 3}
    - target: {fileID: 8824920522800385762, guid: 4c23e270fdc43204684db9d5f0dcd2f1,
        type: 3}
      propertyPath: m_text
      value: OFFLINE REVENUE
      objectReference: {fileID: 0}
    - target: {fileID: 8824920522800385762, guid: 4c23e270fdc43204684db9d5f0dcd2f1,
        type: 3}
      propertyPath: m_textInfo.characterCount
      value: 15
      objectReference: {fileID: 0}
    - target: {fileID: 8824920522800385762, guid: 4c23e270fdc43204684db9d5f0dcd2f1,
        type: 3}
      propertyPath: m_textInfo.spaceCount
      value: 1
      objectReference: {fileID: 0}
    - target: {fileID: 8824920522800385762, guid: 4c23e270fdc43204684db9d5f0dcd2f1,
        type: 3}
      propertyPath: m_textInfo.wordCount
      value: 2
      objectReference: {fileID: 0}
    - target: {fileID: 8824920524617453596, guid: 4c23e270fdc43204684db9d5f0dcd2f1,
        type: 3}
      propertyPath: m_text
      value: +2%
      objectReference: {fileID: 0}
    - target: {fileID: 8824920524617453596, guid: 4c23e270fdc43204684db9d5f0dcd2f1,
        type: 3}
      propertyPath: m_textInfo.characterCount
      value: 3
      objectReference: {fileID: 0}
    - target: {fileID: 8824920524617453596, guid: 4c23e270fdc43204684db9d5f0dcd2f1,
        type: 3}
      propertyPath: m_textInfo.spaceCount
      value: 0
      objectReference: {fileID: 0}
    - target: {fileID: 8824920524617453596, guid: 4c23e270fdc43204684db9d5f0dcd2f1,
        type: 3}
      propertyPath: m_textInfo.wordCount
      value: 2
      objectReference: {fileID: 0}
    - target: {fileID: 8824920523151284492, guid: 4c23e270fdc43204684db9d5f0dcd2f1,
        type: 3}
      propertyPath: m_SizeDelta.x
      value: 0
      objectReference: {fileID: 0}
    - target: {fileID: 8824920523151284492, guid: 4c23e270fdc43204684db9d5f0dcd2f1,
        type: 3}
      propertyPath: m_SizeDelta.y
      value: 0
      objectReference: {fileID: 0}
    - target: {fileID: 8824920523596465182, guid: 4c23e270fdc43204684db9d5f0dcd2f1,
        type: 3}
      propertyPath: m_AnchorMin.y
      value: 0
      objectReference: {fileID: 0}
    - target: {fileID: 8824920523596465182, guid: 4c23e270fdc43204684db9d5f0dcd2f1,
        type: 3}
      propertyPath: m_AnchorMax.y
      value: 0
      objectReference: {fileID: 0}
    - target: {fileID: 8824920523596465182, guid: 4c23e270fdc43204684db9d5f0dcd2f1,
        type: 3}
      propertyPath: m_AnchoredPosition.x
      value: 0
      objectReference: {fileID: 0}
    - target: {fileID: 8824920523596465182, guid: 4c23e270fdc43204684db9d5f0dcd2f1,
        type: 3}
      propertyPath: m_AnchoredPosition.y
      value: 0
      objectReference: {fileID: 0}
    - target: {fileID: 8824920523596465182, guid: 4c23e270fdc43204684db9d5f0dcd2f1,
        type: 3}
      propertyPath: m_SizeDelta.x
      value: 0
      objectReference: {fileID: 0}
    - target: {fileID: 8824920523653122716, guid: 4c23e270fdc43204684db9d5f0dcd2f1,
        type: 3}
      propertyPath: m_AnchorMin.y
      value: 0
      objectReference: {fileID: 0}
    - target: {fileID: 8824920523653122716, guid: 4c23e270fdc43204684db9d5f0dcd2f1,
        type: 3}
      propertyPath: m_AnchorMax.y
      value: 0
      objectReference: {fileID: 0}
    - target: {fileID: 8824920523653122716, guid: 4c23e270fdc43204684db9d5f0dcd2f1,
        type: 3}
      propertyPath: m_AnchoredPosition.x
      value: 0
      objectReference: {fileID: 0}
    - target: {fileID: 8824920523653122716, guid: 4c23e270fdc43204684db9d5f0dcd2f1,
        type: 3}
      propertyPath: m_AnchoredPosition.y
      value: 0
      objectReference: {fileID: 0}
    - target: {fileID: 8824920523653122716, guid: 4c23e270fdc43204684db9d5f0dcd2f1,
        type: 3}
      propertyPath: m_SizeDelta.x
      value: 0
      objectReference: {fileID: 0}
    m_RemovedComponents: []
  m_SourcePrefab: {fileID: 100100000, guid: 4c23e270fdc43204684db9d5f0dcd2f1, type: 3}
