%YAML 1.1
%TAG !u! tag:unity3d.com,2011:
--- !u!1001 &1490408213164842212
PrefabInstance:
  m_ObjectHideFlags: 0
  serializedVersion: 2
  m_Modification:
    m_TransformParent: {fileID: 0}
    m_Modifications:
    - target: {fileID: 251555401380652015, guid: abb66873f999d8a478aa8ab73c106fdb,
        type: 3}
      propertyPath: m_Name
      value: SkillPointsMax
      objectReference: {fileID: 0}
    - target: {fileID: 251555401380652014, guid: abb66873f999d8a478aa8ab73c106fdb,
        type: 3}
      propertyPath: m_LocalPosition.x
      value: 0
      objectReference: {fileID: 0}
    - target: {fileID: 251555401380652014, guid: abb66873f999d8a478aa8ab73c106fdb,
        type: 3}
      propertyPath: m_LocalPosition.y
      value: 0
      objectReference: {fileID: 0}
    - target: {fileID: 251555401380652014, guid: abb66873f999d8a478aa8ab73c106fdb,
        type: 3}
      propertyPath: m_LocalPosition.z
      value: 0
      objectReference: {fileID: 0}
    - target: {fileID: 251555401380652014, guid: abb66873f999d8a478aa8ab73c106fdb,
        type: 3}
      propertyPath: m_LocalRotation.x
      value: -0
      objectReference: {fileID: 0}
    - target: {fileID: 251555401380652014, guid: abb66873f999d8a478aa8ab73c106fdb,
        type: 3}
      propertyPath: m_LocalRotation.y
      value: -0
      objectReference: {fileID: 0}
    - target: {fileID: 251555401380652014, guid: abb66873f999d8a478aa8ab73c106fdb,
        type: 3}
      propertyPath: m_LocalRotation.z
      value: -0
      objectReference: {fileID: 0}
    - target: {fileID: 251555401380652014, guid: abb66873f999d8a478aa8ab73c106fdb,
        type: 3}
      propertyPath: m_LocalRotation.w
      value: 1
      objectReference: {fileID: 0}
    - target: {fileID: 251555401380652014, guid: abb66873f999d8a478aa8ab73c106fdb,
        type: 3}
      propertyPath: m_RootOrder
      value: 0
      objectReference: {fileID: 0}
    - target: {fileID: 251555401380652014, guid: abb66873f999d8a478aa8ab73c106fdb,
        type: 3}
      propertyPath: m_LocalEulerAnglesHint.x
      value: 0
      objectReference: {fileID: 0}
    - target: {fileID: 251555401380652014, guid: abb66873f999d8a478aa8ab73c106fdb,
        type: 3}
      propertyPath: m_LocalEulerAnglesHint.y
      value: 0
      objectReference: {fileID: 0}
    - target: {fileID: 251555401380652014, guid: abb66873f999d8a478aa8ab73c106fdb,
        type: 3}
      propertyPath: m_LocalEulerAnglesHint.z
      value: 0
      objectReference: {fileID: 0}
    - target: {fileID: 251555401380652014, guid: abb66873f999d8a478aa8ab73c106fdb,
        type: 3}
      propertyPath: m_AnchoredPosition.x
      value: 0
      objectReference: {fileID: 0}
    - target: {fileID: 251555401380652014, guid: abb66873f999d8a478aa8ab73c106fdb,
        type: 3}
      propertyPath: m_AnchoredPosition.y
      value: 0
      objectReference: {fileID: 0}
    - target: {fileID: 251555401380652014, guid: abb66873f999d8a478aa8ab73c106fdb,
        type: 3}
      propertyPath: m_SizeDelta.x
      value: 0
      objectReference: {fileID: 0}
    - target: {fileID: 251555401380652014, guid: abb66873f999d8a478aa8ab73c106fdb,
        type: 3}
      propertyPath: m_SizeDelta.y
      value: 0
      objectReference: {fileID: 0}
    - target: {fileID: 251555401380652014, guid: abb66873f999d8a478aa8ab73c106fdb,
        type: 3}
      propertyPath: m_AnchorMin.x
      value: 0.5
      objectReference: {fileID: 0}
    - target: {fileID: 251555401380652014, guid: abb66873f999d8a478aa8ab73c106fdb,
        type: 3}
      propertyPath: m_AnchorMin.y
      value: 1
      objectReference: {fileID: 0}
    - target: {fileID: 251555401380652014, guid: abb66873f999d8a478aa8ab73c106fdb,
        type: 3}
      propertyPath: m_AnchorMax.x
      value: 0.5
      objectReference: {fileID: 0}
    - target: {fileID: 251555401380652014, guid: abb66873f999d8a478aa8ab73c106fdb,
        type: 3}
      propertyPath: m_AnchorMax.y
      value: 1
      objectReference: {fileID: 0}
    - target: {fileID: 251555401380652014, guid: abb66873f999d8a478aa8ab73c106fdb,
        type: 3}
      propertyPath: m_Pivot.x
      value: 0.5
      objectReference: {fileID: 0}
    - target: {fileID: 251555401380652014, guid: abb66873f999d8a478aa8ab73c106fdb,
        type: 3}
      propertyPath: m_Pivot.y
      value: 1
      objectReference: {fileID: 0}
    - target: {fileID: 251555402388944472, guid: abb66873f999d8a478aa8ab73c106fdb,
        type: 3}
      propertyPath: m_text
      value: 1234
      objectReference: {fileID: 0}
    - target: {fileID: 251555402388944472, guid: abb66873f999d8a478aa8ab73c106fdb,
        type: 3}
      propertyPath: m_textInfo.characterCount
      value: 4
      objectReference: {fileID: 0}
    - target: {fileID: 251555402388944472, guid: abb66873f999d8a478aa8ab73c106fdb,
        type: 3}
      propertyPath: m_textInfo.wordCount
      value: 1
      objectReference: {fileID: 0}
    - target: {fileID: 251555402865036092, guid: abb66873f999d8a478aa8ab73c106fdb,
        type: 3}
      propertyPath: m_SizeDelta.y
      value: 52
      objectReference: {fileID: 0}
    - target: {fileID: 251555402388944474, guid: abb66873f999d8a478aa8ab73c106fdb,
        type: 3}
      propertyPath: m_Name
      value: SkillPoint_Txt
      objectReference: {fileID: 0}
    - target: {fileID: 251555402865036093, guid: abb66873f999d8a478aa8ab73c106fdb,
        type: 3}
      propertyPath: m_Name
      value: SkillPoint_img
      objectReference: {fileID: 0}
    - target: {fileID: 251555402865036091, guid: abb66873f999d8a478aa8ab73c106fdb,
        type: 3}
      propertyPath: m_Sprite
      value: 
      objectReference: {fileID: 21300000, guid: 6fe7822ad0b097046913ee3b0e7ea968,
        type: 3}
    - target: {fileID: 251555402865036089, guid: abb66873f999d8a478aa8ab73c106fdb,
        type: 3}
      propertyPath: m_PreferredWidth
      value: 52
      objectReference: {fileID: 0}
    m_RemovedComponents: []
  m_SourcePrefab: {fileID: 100100000, guid: abb66873f999d8a478aa8ab73c106fdb, type: 3}
