%YAML 1.1
%TAG !u! tag:unity3d.com,2011:
--- !u!687078895 &4343727234628468602
SpriteAtlas:
  m_ObjectHideFlags: 0
  m_CorrespondingSourceObject: {fileID: 0}
  m_PrefabInstance: {fileID: 0}
  m_PrefabAsset: {fileID: 0}
  m_Name: Fire
  m_EditorData:
    serializedVersion: 2
    textureSettings:
      serializedVersion: 2
      anisoLevel: 1
      compressionQuality: 50
      maxTextureSize: 2048
      textureCompression: 0
      filterMode: 1
      generateMipMaps: 0
      readable: 0
      crunchedCompression: 0
      sRGB: 1
    platformSettings:
    - serializedVersion: 2
      m_BuildTarget: DefaultTexturePlatform
      m_MaxTextureSize: 2048
      m_ResizeAlgorithm: 0
      m_TextureFormat: -1
      m_TextureCompression: 1
      m_CompressionQuality: 50
      m_CrunchedCompression: 0
      m_AllowsAlphaSplitting: 0
      m_Overridden: 0
      m_AndroidETC2FallbackOverride: 0
    - serializedVersion: 2
      m_BuildTarget: iPhone
      m_MaxTextureSize: 4096
      m_ResizeAlgorithm: 0
      m_TextureFormat: 47
      m_TextureCompression: 1
      m_CompressionQuality: 100
      m_CrunchedCompression: 0
      m_AllowsAlphaSplitting: 0
      m_Overridden: 1
      m_AndroidETC2FallbackOverride: 0
    packingSettings:
      serializedVersion: 2
      padding: 4
      blockOffset: 1
      allowAlphaSplitting: 0
      enableRotation: 0
      enableTightPacking: 0
    variantMultiplier: 1
    packables:
    - {fileID: 2800000, guid: 4a086be14b272a24c8d3de36aeb2f6ae, type: 3}
    - {fileID: 2800000, guid: 6af41aad35d768149b8f57deda1bcf59, type: 3}
    - {fileID: 2800000, guid: b59fe71a4e316764c9a86f73c6e14e8e, type: 3}
    - {fileID: 2800000, guid: 673deba0c6e3f954586022ed96d8b001, type: 3}
    - {fileID: 2800000, guid: d3e7195fd48338b49add28b46315d92b, type: 3}
    - {fileID: 2800000, guid: 3ce087e1db8251e4ca4eb389d90b7674, type: 3}
    totalSpriteSurfaceArea: 1825662
    bindAsDefault: 1
    storedHash:
      serializedVersion: 2
      Hash: cadf9128d6adb18b1531efc859db1d09
  m_MasterAtlas: {fileID: 0}
  m_PackedSprites:
  - {fileID: 21300000, guid: 673deba0c6e3f954586022ed96d8b001, type: 3}
  - {fileID: 21300000, guid: 3ce087e1db8251e4ca4eb389d90b7674, type: 3}
  - {fileID: 21300000, guid: 4a086be14b272a24c8d3de36aeb2f6ae, type: 3}
  - {fileID: 21300000, guid: b59fe71a4e316764c9a86f73c6e14e8e, type: 3}
  - {fileID: 21300000, guid: 6af41aad35d768149b8f57deda1bcf59, type: 3}
  - {fileID: 21300000, guid: d3e7195fd48338b49add28b46315d92b, type: 3}
  m_PackedSpriteNamesToIndex:
  - Fire 4
  - gradient
  - Fire 1
  - Fire 3
  - Fire 2
  - Fire 5
  m_Tag: Fire
  m_IsVariant: 0
